{
  "extends": "tslint:latest",
  "rules": {
    "quotemark": [true, "single"],
    "object-literal-sort-keys": false,
    "ordered-imports": [false],
    "whitespace": [true, "check-branch", "check-decl", "check-operator", "check-module", "check-separator", "check-type"],
    "interface-name": [true, "never-prefix"],
    "no-shadowed-variable": false,
    "no-string-literal": false,
    "trailing-comma": [false],
    "member-ordering": [ { "order": "fields-first" } ],
    "array-type": [true, "array"],
    "arrow-parens": false,
    "prefer-for-of": false,
    "no-implicit-dependencies": false,
    "member-access": false,
    "no-submodule-imports": false,
    "curly": false,
    "prefer-conditional-expression": false,
    "prefer-object-spread": false,
    "forin": false
  }
}
